[1449522169088] Created: asdfghj6545w___jb_bak___
[1449522169088] Modified: asdfghj6545w___jb_bak___
[1449522169088] Deleted: asdfghj6545w
[1449522169088] Created: asdfghj6545w___jb_old___
[1449522169089] Deleted: asdfghj6545w___jb_bak___
[1449522169089] Created: asdfghj6545w
[1449522169089] Modified: asdfghj6545w
[1449522169089] Deleted: asdfghj6545w___jb_old___
[1449522172856] Created: test___jb_bak___
[1449522172856] Modified: test___jb_bak___
[1449522172856] Deleted: test
[1449522172856] Created: test___jb_old___
[1449522172856] Deleted: test___jb_bak___
[1449522172856] Created: test
[1449522172856] Modified: test
[1449522172857] Deleted: test___jb_old___
